Data (without the 1 kHz filter)/SDS00004.csv

Record Length,Analog:7000,
Sample Interval,Analog:1.000000E-09,
Vertical Units,CH1:V,,
Vertical Scale,CH1:+5.000000E-01,,
Vertical Offset,CH1:+0.000000E+00,,
Horizontal Units,us,
Horizontal Scale,+5.000000E-01,
Model Number,SDS1104X-U,
Serial Number,SDSAHBAD5R1650,
Software Version,2.1.1.1.5R6,
Source,CH1
Second,Value
-3.500000E-06,+6.000000E-01
-3.499000E-06,+6.000000E-01
-3.498000E-06,+6.200000E-01
-3.497000E-06,+6.200000E-01
-3.496000E-06,+6.200000E-01
-3.495000E-06,+6.200000E-01
-3.494000E-06,+6.200000E-01
-3.493000E-06,+6.400000E-01
-3.492000E-06,+6.200000E-01
-3.491000E-06,+6.200000E-01
-3.490000E-06,+6.200000E-01
-3.489000E-06,+6.400000E-01
-3.488000E-06,+6.400000E-01
-3.487000E-06,+6.600000E-01
-3.486000E-06,+6.600000E-01
-3.485000E-06,+6.800000E-01
-3.484000E-06,+6.800000E-01
-3.483000E-06,+6.800000E-01
-3.482000E-06,+6.800000E-01
-3.481000E-06,+7.000000E-01
-3.480000E-06,+7.000000E-01
-3.479000E-06,+7.000000E-01
-3.478000E-06,+7.000000E-01
-3.477000E-06,+7.000000E-01
-3.476000E-06,+7.000000E-01
-3.475000E-06,+7.000000E-01
-3.474000E-06,+7.200000E-01
-3.473000E-06,+7.200000E-01
-3.472000E-06,+7.400000E-01
-3.471000E-06,+7.400000E-01
-3.470000E-06,+7.400000E-01
-3.469000E-06,+7.600000E-01
-3.468000E-06,+7.600000E-01
-3.467000E-06,+7.600000E-01
-3.466000E-06,+7.600000E-01
-3.465000E-06,+7.800000E-01
-3.464000E-06,+7.800000E-01
-3.463000E-06,+7.800000E-01
-3.462000E-06,+7.800000E-01
-3.461000E-06,+7.800000E-01
-3.460000E-06,+7.800000E-01
-3.459000E-06,+7.800000E-01
-3.458000E-06,+7.800000E-01
-3.457000E-06,+8.000000E-01
-3.456000E-06,+8.000000E-01
-3.455000E-06,+8.000000E-01
-3.454000E-06,+8.000000E-01
-3.453000E-06,+8.000000E-01
-3.452000E-06,+8.200000E-01
-3.451000E-06,+8.200000E-01
-3.450000E-06,+8.400000E-01
-3.449000E-06,+8.400000E-01
-3.448000E-06,+8.400000E-01
-3.447000E-06,+8.400000E-01
-3.446000E-06,+8.400000E-01
-3.445000E-06,+8.400000E-01
-3.444000E-06,+8.600000E-01
-3.443000E-06,+8.600000E-01
-3.442000E-06,+8.600000E-01
-3.441000E-06,+8.600000E-01
-3.440000E-06,+8.600000E-01
-3.439000E-06,+8.600000E-01
-3.438000E-06,+8.600000E-01
-3.437000E-06,+8.800000E-01
-3.436000E-06,+8.800000E-01
-3.435000E-06,+9.000000E-01
-3.434000E-06,+9.000000E-01
-3.433000E-06,+9.000000E-01
-3.432000E-06,+9.000000E-01
-3.431000E-06,+9.000000E-01
-3.430000E-06,+9.000000E-01
-3.429000E-06,+9.000000E-01
-3.428000E-06,+9.000000E-01
-3.427000E-06,+9.000000E-01
-3.426000E-06,+9.000000E-01
-3.425000E-06,+9.200000E-01
-3.424000E-06,+9.200000E-01
-3.423000E-06,+9.400000E-01
-3.422000E-06,+9.400000E-01
-3.421000E-06,+9.400000E-01
-3.420000E-06,+9.400000E-01
-3.419000E-06,+9.400000E-01
-3.418000E-06,+9.400000E-01
-3.417000E-06,+9.400000E-01
-3.416000E-06,+9.600000E-01
-3.415000E-06,+9.600000E-01
-3.414000E-06,+9.600000E-01
-3.413000E-06,+9.600000E-01
-3.412000E-06,+9.600000E-01
-3.411000E-06,+9.600000E-01
-3.410000E-06,+9.600000E-01
-3.409000E-06,+9.400000E-01
-3.408000E-06,+9.400000E-01
-3.407000E-06,+9.600000E-01
-3.406000E-06,+9.600000E-01
-3.405000E-06,+9.600000E-01
-3.404000E-06,+9.800000E-01
-3.403000E-06,+9.800000E-01
-3.402000E-06,+9.800000E-01
-3.401000E-06,+9.800000E-01
-3.400000E-06,+9.800000E-01
-3.399000E-06,+9.800000E-01
-3.398000E-06,+9.800000E-01
-3.397000E-06,+9.800000E-01
-3.396000E-06,+9.800000E-01
-3.395000E-06,+9.800000E-01
-3.394000E-06,+9.800000E-01
-3.393000E-06,+9.800000E-01
-3.392000E-06,+9.800000E-01
-3.391000E-06,+9.800000E-01
-3.390000E-06,+1.000000E+00
-3.389000E-06,+1.000000E+00
-3.388000E-06,+1.000000E+00
-3.387000E-06,+1.000000E+00
-3.386000E-06,+1.000000E+00
-3.385000E-06,+1.000000E+00
-3.384000E-06,+1.000000E+00
-3.383000E-06,+1.000000E+00
-3.382000E-06,+1.000000E+00
-3.381000E-06,+1.000000E+00
-3.380000E-06,+1.000000E+00
-3.379000E-06,+1.000000E+00
-3.378000E-06,+1.000000E+00
-3.377000E-06,+1.000000E+00
-3.376000E-06,+1.000000E+00
-3.375000E-06,+1.000000E+00
-3.374000E-06,+1.000000E+00
-3.373000E-06,+1.020000E+00
-3.372000E-06,+1.020000E+00
-3.371000E-06,+1.020000E+00
-3.370000E-06,+1.020000E+00
-3.369000E-06,+1.020000E+00
-3.368000E-06,+1.020000E+00
-3.367000E-06,+1.020000E+00
-3.366000E-06,+1.020000E+00
-3.365000E-06,+1.000000E+00
-3.364000E-06,+1.000000E+00
-3.363000E-06,+1.000000E+00
-3.362000E-06,+1.020000E+00
-3.361000E-06,+1.020000E+00
-3.360000E-06,+1.020000E+00
-3.359000E-06,+1.000000E+00
-3.358000E-06,+1.000000E+00
-3.357000E-06,+1.000000E+00
-3.356000E-06,+1.000000E+00
-3.355000E-06,+1.020000E+00
-3.354000E-06,+1.020000E+00
-3.353000E-06,+1.020000E+00
-3.352000E-06,+1.020000E+00
-3.351000E-06,+1.020000E+00
-3.350000E-06,+1.020000E+00
-3.349000E-06,+1.000000E+00
-3.348000E-06,+1.000000E+00
-3.347000E-06,+9.800000E-01
-3.346000E-06,+9.800000E-01
-3.345000E-06,+9.800000E-01
-3.344000E-06,+1.000000E+00
-3.343000E-06,+1.000000E+00
-3.342000E-06,+1.000000E+00
-3.341000E-06,+1.000000E+00
-3.340000E-06,+1.020000E+00
-3.339000E-06,+1.000000E+00
-3.338000E-06,+1.000000E+00
-3.337000E-06,+1.000000E+00
-3.336000E-06,+1.000000E+00
-3.335000E-06,+1.000000E+00
-3.334000E-06,+1.000000E+00
-3.333000E-06,+1.000000E+00
-3.332000E-06,+9.800000E-01
-3.331000E-06,+9.800000E-01
-3.330000E-06,+9.800000E-01
-3.329000E-06,+9.800000E-01
-3.328000E-06,+9.800000E-01
-3.327000E-06,+9.800000E-01
-3.326000E-06,+9.800000E-01
-3.325000E-06,+1.000000E+00
-3.324000E-06,+1.000000E+00
-3.323000E-06,+1.000000E+00
-3.322000E-06,+9.800000E-01
-3.321000E-06,+9.800000E-01
-3.320000E-06,+9.600000E-01
-3.319000E-06,+9.600000E-01
-3.318000E-06,+9.600000E-01
-3.317000E-06,+9.600000E-01
-3.316000E-06,+9.600000E-01
-3.315000E-06,+9.600000E-01
-3.314000E-06,+9.600000E-01
-3.313000E-06,+9.600000E-01
-3.312000E-06,+9.400000E-01
-3.311000E-06,+9.400000E-01
-3.310000E-06,+9.400000E-01
-3.309000E-06,+9.400000E-01
-3.308000E-06,+9.400000E-01
-3.307000E-06,+9.400000E-01
-3.306000E-06,+9.400000E-01
-3.305000E-06,+9.400000E-01
-3.304000E-06,+9.200000E-01
-3.303000E-06,+9.200000E-01
-3.302000E-06,+9.200000E-01
-3.301000E-06,+9.200000E-01
-3.300000E-06,+9.200000E-01
-3.299000E-06,+9.000000E-01
-3.298000E-06,+9.000000E-01
-3.297000E-06,+9.000000E-01
-3.296000E-06,+9.000000E-01
-3.295000E-06,+9.000000E-01
-3.294000E-06,+9.000000E-01
-3.293000E-06,+9.000000E-01
-3.292000E-06,+9.000000E-01
-3.291000E-06,+8.800000E-01
-3.290000E-06,+8.800000E-01
-3.289000E-06,+8.800000E-01
-3.288000E-06,+8.800000E-01
-3.287000E-06,+8.600000E-01
-3.286000E-06,+8.600000E-01
-3.285000E-06,+8.600000E-01
-3.284000E-06,+8.600000E-01
-3.283000E-06,+8.400000E-01
-3.282000E-06,+8.400000E-01
-3.281000E-06,+8.200000E-01
-3.280000E-06,+8.200000E-01
-3.279000E-06,+8.200000E-01
-3.278000E-06,+8.200000E-01
-3.277000E-06,+8.200000E-01
-3.276000E-06,+8.200000E-01
-3.275000E-06,+8.200000E-01
-3.274000E-06,+8.200000E-01
-3.273000E-06,+8.000000E-01
-3.272000E-06,+7.800000E-01
-3.271000E-06,+7.800000E-01
-3.270000E-06,+7.800000E-01
-3.269000E-06,+7.600000E-01
-3.268000E-06,+7.600000E-01
-3.267000E-06,+7.600000E-01
-3.266000E-06,+7.400000E-01
-3.265000E-06,+7.400000E-01
-3.264000E-06,+7.400000E-01
-3.263000E-06,+7.200000E-01
-3.262000E-06,+7.200000E-01
-3.261000E-06,+7.000000E-01
-3.260000E-06,+7.000000E-01
-3.259000E-06,+7.000000E-01
-3.258000E-06,+7.000000E-01
-3.257000E-06,+7.000000E-01
-3.256000E-06,+7.000000E-01
-3.255000E-06,+6.800000E-01
-3.254000E-06,+6.600000E-01
-3.253000E-06,+6.600000E-01
-3.252000E-06,+6.400000E-01
-3.251000E-06,+6.400000E-01
-3.250000E-06,+6.200000E-01
-3.249000E-06,+6.200000E-01
-3.248000E-06,+6.200000E-01
-3.247000E-06,+6.000000E-01
-3.246000E-06,+6.000000E-01
-3.245000E-06,+6.000000E-01
-3.244000E-06,+6.000000E-01
-3.243000E-06,+6.000000E-01
-3.242000E-06,+5.800000E-01
-3.241000E-06,+5.800000E-01
-3.240000E-06,+5.800000E-01
-3.239000E-06,+5.600000E-01
-3.238000E-06,+5.600000E-01
-3.237000E-06,+5.400000E-01
-3.236000E-06,+5.200000E-01
-3.235000E-06,+5.200000E-01
-3.234000E-06,+5.000000E-01
-3.233000E-06,+5.000000E-01
-3.232000E-06,+5.000000E-01
-3.231000E-06,+4.800000E-01
-3.230000E-06,+4.800000E-01
-3.229000E-06,+4.800000E-01
-3.228000E-06,+4.800000E-01
-3.227000E-06,+4.600000E-01
-3.226000E-06,+4.600000E-01
-3.225000E-06,+4.400000E-01
-3.224000E-06,+4.400000E-01
-3.223000E-06,+4.200000E-01
-3.222000E-06,+4.200000E-01
-3.221000E-06,+4.000000E-01
-3.220000E-06,+4.000000E-01
-3.219000E-06,+3.800000E-01
-3.218000E-06,+3.800000E-01
-3.217000E-06,+3.600000E-01
-3.216000E-06,+3.400000E-01
-3.215000E-06,+3.400000E-01
-3.214000E-06,+3.400000E-01
-3.213000E-06,+3.400000E-01
-3.212000E-06,+3.200000E-01
-3.211000E-06,+3.200000E-01
-3.210000E-06,+3.000000E-01
-3.209000E-06,+2.800000E-01
-3.208000E-06,+2.800000E-01
-3.207000E-06,+2.800000E-01
-3.206000E-06,+2.600000E-01
-3.205000E-06,+2.600000E-01
-3.204000E-06,+2.400000E-01
-3.203000E-06,+2.400000E-01
-3.202000E-06,+2.200000E-01
-3.201000E-06,+2.200000E-01
-3.200000E-06,+2.000000E-01
-3.199000E-06,+2.000000E-01
-3.198000E-06,+1.800000E-01
-3.197000E-06,+1.800000E-01
-3.196000E-06,+1.800000E-01
-3.195000E-06,+1.800000E-01
-3.194000E-06,+1.600000E-01
-3.193000E-06,+1.600000E-01
-3.192000E-06,+1.600000E-01
-3.191000E-06,+1.600000E-01
-3.190000E-06,+1.400000E-01
-3.189000E-06,+1.400000E-01
-3.188000E-06,+1.200000E-01
-3.187000E-06,+1.200000E-01
-3.186000E-06,+9.999999E-02
-3.185000E-06,+9.999999E-02
-3.184000E-06,+9.999999E-02
-3.183000E-06,+9.999999E-02
-3.182000E-06,+9.999999E-02
-3.181000E-06,+9.999999E-02
-3.180000E-06,+9.999999E-02
-3.179000E-06,+9.999999E-02
-3.178000E-06,+8.000000E-02
-3.177000E-06,+8.000000E-02
-3.176000E-06,+8.000000E-02
-3.175000E-06,+8.000000E-02
-3.174000E-06,+6.000000E-02
-3.173000E-06,+6.000000E-02
-3.172000E-06,+6.000000E-02
-3.171000E-06,+6.000000E-02
-3.170000E-06,+4.000000E-02
-3.169000E-06,+4.000000E-02
-3.168000E-06,+4.000000E-02
-3.167000E-06,+4.000000E-02
-3.166000E-06,+4.000000E-02
-3.165000E-06,+4.000000E-02
-3.164000E-06,+6.000000E-02
-3.163000E-06,+6.000000E-02
-3.162000E-06,+4.000000E-02
-3.161000E-06,+4.000000E-02
-3.160000E-06,+4.000000E-02
-3.159000E-06,+4.000000E-02
-3.158000E-06,+4.000000E-02
-3.157000E-06,+4.000000E-02
-3.156000E-06,+4.000000E-02
-3.155000E-06,+2.000000E-02
-3.154000E-06,+2.000000E-02
-3.153000E-06,+2.000000E-02
-3.152000E-06,+2.000000E-02
-3.151000E-06,+2.000000E-02
-3.150000E-06,+4.000000E-02
-3.149000E-06,+4.000000E-02
-3.148000E-06,+4.000000E-02
-3.147000E-06,+4.000000E-02
-3.146000E-06,+4.000000E-02
-3.145000E-06,+4.000000E-02
-3.144000E-06,+4.000000E-02
-3.143000E-06,+4.000000E-02
-3.142000E-06,+4.000000E-02
-3.141000E-06,+4.000000E-02
-3.140000E-06,+4.000000E-02
-3.139000E-06,+4.000000E-02
-3.138000E-06,+2.000000E-02
-3.137000E-06,+2.000000E-02
-3.136000E-06,+2.000000E-02
-3.135000E-06,+2.000000E-02
-3.134000E-06,+2.000000E-02
-3.133000E-06,+4.000000E-02
-3.132000E-06,+4.000000E-02
-3.131000E-06,+4.000000E-02
-3.130000E-06,+6.000000E-02
-3.129000E-06,+6.000000E-02
-3.128000E-06,+6.000000E-02
-3.127000E-06,+6.000000E-02
-3.126000E-06,+6.000000E-02
-3.125000E-06,+4.000000E-02
-3.124000E-06,+4.000000E-02
-3.123000E-06,+4.000000E-02
-3.122000E-06,+2.000000E-02
-3.121000E-06,+2.000000E-02
-3.120000E-06,+2.000000E-02
-3.119000E-06,+4.000000E-02
-3.118000E-06,+4.000000E-02
-3.117000E-06,+4.000000E-02
-3.116000E-06,+4.000000E-02
-3.115000E-06,+4.000000E-02
-3.114000E-06,+4.000000E-02
-3.113000E-06,+4.000000E-02
-3.112000E-06,+4.000000E-02
-3.111000E-06,+4.000000E-02
-3.110000E-06,+4.000000E-02
-3.109000E-06,+4.000000E-02
-3.108000E-06,+4.000000E-02
-3.107000E-06,+4.000000E-02
-3.106000E-06,+4.000000E-02
-3.105000E-06,+4.000000E-02
-3.104000E-06,+4.000000E-02
-3.103000E-06,+4.000000E-02
-3.102000E-06,+4.000000E-02
-3.101000E-06,+4.000000E-02
-3.100000E-06,+4.000000E-02
-3.099000E-06,+4.000000E-02
-3.098000E-06,+6.000000E-02
-3.097000E-06,+6.000000E-02
-3.096000E-06,+6.000000E-02
-3.095000E-06,+4.000000E-02
-3.094000E-06,+4.000000E-02
-3.093000E-06,+4.000000E-02
-3.092000E-06,+4.000000E-02
-3.091000E-06,+2.000000E-02
-3.090000E-06,+2.000000E-02
-3.089000E-06,+2.000000E-02
-3.088000E-06,+4.000000E-02
-3.087000E-06,+4.000000E-02
-3.086000E-06,+6.000000E-02
-3.085000E-06,+6.000000E-02
-3.084000E-06,+6.000000E-02
-3.083000E-06,+6.000000E-02
-3.082000E-06,+4.000000E-02
-3.081000E-06,+4.000000E-02
-3.080000E-06,+4.000000E-02
-3.079000E-06,+6.000000E-02
-3.078000E-06,+6.000000E-02
-3.077000E-06,+6.000000E-02
-3.076000E-06,+6.000000E-02
-3.075000E-06,+6.000000E-02
-3.074000E-06,+4.000000E-02
-3.073000E-06,+4.000000E-02
-3.072000E-06,+4.000000E-02
-3.071000E-06,+2.000000E-02
-3.070000E-06,+2.000000E-02
-3.069000E-06,+4.000000E-02
-3.068000E-06,+4.000000E-02
-3.067000E-06,+4.000000E-02
-3.066000E-06,+4.000000E-02
-3.065000E-06,+4.000000E-02
-3.064000E-06,+4.000000E-02
-3.063000E-06,+4.000000E-02
-3.062000E-06,+4.000000E-02
-3.061000E-06,+4.000000E-02
-3.060000E-06,+4.000000E-02
-3.059000E-06,+4.000000E-02
-3.058000E-06,+4.000000E-02
-3.057000E-06,+4.000000E-02
-3.056000E-06,+4.000000E-02
-3.055000E-06,+4.000000E-02
-3.054000E-06,+4.000000E-02
-3.053000E-06,+4.000000E-02
-3.052000E-06,+4.000000E-02
-3.051000E-06,+4.000000E-02
-3.050000E-06,+4.000000E-02
-3.049000E-06,+6.000000E-02
-3.048000E-06,+6.000000E-02
-3.047000E-06,+6.000000E-02
-3.046000E-06,+6.000000E-02
-3.045000E-06,+4.000000E-02
-3.044000E-06,+4.000000E-02
-3.043000E-06,+4.000000E-02
-3.042000E-06,+4.000000E-02
-3.041000E-06,+4.000000E-02
-3.040000E-06,+4.000000E-02
-3.039000E-06,+4.000000E-02
-3.038000E-06,+4.000000E-02
-3.037000E-06,+4.000000E-02
-3.036000E-06,+4.000000E-02
-3.035000E-06,+4.000000E-02
-3.034000E-06,+4.000000E-02
-3.033000E-06,+4.000000E-02
-3.032000E-06,+4.000000E-02
-3.031000E-06,+4.000000E-02
-3.030000E-06,+4.000000E-02
-3.029000E-06,+4.000000E-02
-3.028000E-06,+4.000000E-02
-3.027000E-06,+4.000000E-02
-3.026000E-06,+2.000000E-02
-3.025000E-06,+2.000000E-02
-3.024000E-06,+2.000000E-02
-3.023000E-06,+2.000000E-02
-3.022000E-06,+4.000000E-02
-3.021000E-06,+4.000000E-02
-3.020000E-06,+6.000000E-02
-3.019000E-06,+6.000000E-02
-3.018000E-06,+6.000000E-02
-3.017000E-06,+6.000000E-02
-3.016000E-06,+4.000000E-02
-3.015000E-06,+4.000000E-02
-3.014000E-06,+4.000000E-02
-3.013000E-06,+4.000000E-02
-3.012000E-06,+4.000000E-02
-3.011000E-06,+4.000000E-02
-3.010000E-06,+4.000000E-02
-3.009000E-06,+4.000000E-02
-3.008000E-06,+4.000000E-02
-3.007000E-06,+4.000000E-02
-3.006000E-06,+4.000000E-02
-3.005000E-06,+4.000000E-02
-3.004000E-06,+4.000000E-02
-3.003000E-06,+4.000000E-02
-3.002000E-06,+4.000000E-02
-3.001000E-06,+4.000000E-02
-3.000000E-06,+4.000000E-02
-2.999000E-06,+4.000000E-02
-2.998000E-06,+4.000000E-02
-2.997000E-06,+4.000000E-02
-2.996000E-06,+4.000000E-02
-2.995000E-06,+4.000000E-02
-2.994000E-06,+4.000000E-02
-2.993000E-06,+4.000000E-02
-2.992000E-06,+4.000000E-02
-2.991000E-06,+4.000000E-02
-2.990000E-06,+4.000000E-02
-2.989000E-06,+4.000000E-02
-2.988000E-06,+4.000000E-02
-2.987000E-06,+4.000000E-02
-2.986000E-06,+4.000000E-02
-2.985000E-06,+4.000000E-02
-2.984000E-06,+4.000000E-02
-2.983000E-06,+4.000000E-02
-2.982000E-06,+4.000000E-02
-2.981000E-06,+4.000000E-02
-2.980000E-06,+4.000000E-02
-2.979000E-06,+4.000000E-02
-2.978000E-06,+4.000000E-02
-2.977000E-06,+4.000000E-02
-2.976000E-06,+4.000000E-02
-2.975000E-06,+4.000000E-02
-2.974000E-06,+4.000000E-02
-2.973000E-06,+4.000000E-02
-2.972000E-06,+4.000000E-02
-2.971000E-06,+4.000000E-02
-2.970000E-06,+4.000000E-02
-2.969000E-06,+4.000000E-02
-2.968000E-06,+4.000000E-02
-2.967000E-06,+4.000000E-02
-2.966000E-06,+4.000000E-02
-2.965000E-06,+2.000000E-02
-2.964000E-06,+4.000000E-02
-2.963000E-06,+4.000000E-02
-2.962000E-06,+4.000000E-02
-2.961000E-06,+4.000000E-02
-2.960000E-06,+4.000000E-02
-2.959000E-06,+4.000000E-02
-2.958000E-06,+4.000000E-02
-2.957000E-06,+4.000000E-02
-2.956000E-06,+4.000000E-02
-2.955000E-06,+6.000000E-02
-2.954000E-06,+6.000000E-02
-2.953000E-06,+6.000000E-02
-2.952000E-06,+6.000000E-02
-2.951000E-06,+4.000000E-02
-2.950000E-06,+4.000000E-02
-2.949000E-06,+4.000000E-02
-2.948000E-06,+4.000000E-02
-2.947000E-06,+2.000000E-02
-2.946000E-06,+2.000000E-02
-2.945000E-06,+4.000000E-02
-2.944000E-06,+4.000000E-02
-2.943000E-06,+4.000000E-02
-2.942000E-06,+4.000000E-02
-2.941000E-06,+4.000000E-02
-2.940000E-06,+4.000000E-02
-2.939000E-06,+4.000000E-02
-2.938000E-06,+4.000000E-02
-2.937000E-06,+4.000000E-02
-2.936000E-06,+4.000000E-02
-2.935000E-06,+4.000000E-02
-2.934000E-06,+4.000000E-02
-2.933000E-06,+4.000000E-02
-2.932000E-06,+4.000000E-02
-2.931000E-06,+4.000000E-02
-2.930000E-06,+4.000000E-02
-2.929000E-06,+4.000000E-02
-2.928000E-06,+4.000000E-02
-2.927000E-06,+4.000000E-02
-2.926000E-06,+4.000000E-02
-2.925000E-06,+4.000000E-02
-2.924000E-06,+4.000000E-02
-2.923000E-06,+4.000000E-02
-2.922000E-06,+4.000000E-02
-2.921000E-06,+4.000000E-02
-2.920000E-06,+4.000000E-02
-2.919000E-06,+4.000000E-02
-2.918000E-06,+4.000000E-02
-2.917000E-06,+4.000000E-02
-2.916000E-06,+4.000000E-02
-2.915000E-06,+4.000000E-02
-2.914000E-06,+4.000000E-02
-2.913000E-06,+4.000000E-02
-2.912000E-06,+4.000000E-02
-2.911000E-06,+4.000000E-02
-2.910000E-06,+4.000000E-02
-2.909000E-06,+4.000000E-02
-2.908000E-06,+6.000000E-02
-2.907000E-06,+6.000000E-02
-2.906000E-06,+4.000000E-02
-2.905000E-06,+4.000000E-02
-2.904000E-06,+6.000000E-02
-2.903000E-06,+6.000000E-02
-2.902000E-06,+6.000000E-02
-2.901000E-06,+4.000000E-02
-2.900000E-06,+4.000000E-02
-2.899000E-06,+4.000000E-02
-2.898000E-06,+4.000000E-02
-2.897000E-06,+4.000000E-02
-2.896000E-06,+4.000000E-02
-2.895000E-06,+4.000000E-02
-2.894000E-06,+4.000000E-02
-2.893000E-06,+4.000000E-02
-2.892000E-06,+4.000000E-02
-2.891000E-06,+4.000000E-02
-2.890000E-06,+4.000000E-02
-2.889000E-06,+4.000000E-02
-2.888000E-06,+4.000000E-02
-2.887000E-06,+4.000000E-02
-2.886000E-06,+4.000000E-02
-2.885000E-06,+4.000000E-02
-2.884000E-06,+4.000000E-02
-2.883000E-06,+4.000000E-02
-2.882000E-06,+4.000000E-02
-2.881000E-06,+4.000000E-02
-2.880000E-06,+4.000000E-02
-2.879000E-06,+4.000000E-02
-2.878000E-06,+4.000000E-02
-2.877000E-06,+4.000000E-02
-2.876000E-06,+4.000000E-02
-2.875000E-06,+6.000000E-02
-2.874000E-06,+6.000000E-02
-2.873000E-06,+6.000000E-02
-2.872000E-06,+6.000000E-02
-2.871000E-06,+4.000000E-02
-2.870000E-06,+4.000000E-02
-2.869000E-06,+4.000000E-02
-2.868000E-06,+4.000000E-02
-2.867000E-06,+4.000000E-02
-2.866000E-06,+4.000000E-02
-2.865000E-06,+4.000000E-02
-2.864000E-06,+4.000000E-02
-2.863000E-06,+4.000000E-02
-2.862000E-06,+4.000000E-02
-2.861000E-06,+4.000000E-02
-2.860000E-06,+4.000000E-02
-2.859000E-06,+4.000000E-02
-2.858000E-06,+4.000000E-02
-2.857000E-06,+4.000000E-02
-2.856000E-06,+4.000000E-02
-2.855000E-06,+4.000000E-02
-2.854000E-06,+4.000000E-02
-2.853000E-06,+4.000000E-02
-2.852000E-06,+4.000000E-02
-2.851000E-06,+4.000000E-02
-2.850000E-06,+4.000000E-02
-2.849000E-06,+4.000000E-02
-2.848000E-06,+4.000000E-02
-2.847000E-06,+4.000000E-02
-2.846000E-06,+2.000000E-02
-2.845000E-06,+2.000000E-02
-2.844000E-06,+2.000000E-02
-2.843000E-06,+2.000000E-02
-2.842000E-06,+2.000000E-02
-2.841000E-06,+4.000000E-02
-2.840000E-06,+4.000000E-02
-2.839000E-06,+4.000000E-02
-2.838000E-06,+4.000000E-02
-2.837000E-06,+4.000000E-02
-2.836000E-06,+4.000000E-02
-2.835000E-06,+4.000000E-02
-2.834000E-06,+4.000000E-02
-2.833000E-06,+4.000000E-02
-2.832000E-06,+4.000000E-02
-2.831000E-06,+4.000000E-02
-2.830000E-06,+4.000000E-02
-2.829000E-06,+4.000000E-02
-2.828000E-06,+4.000000E-02
-2.827000E-06,+4.000000E-02
-2.826000E-06,+4.000000E-02
-2.825000E-06,+4.000000E-02
-2.824000E-06,+4.000000E-02
-2.823000E-06,+4.000000E-02
-2.822000E-06,+4.000000E-02
-2.821000E-06,+4.000000E-02
-2.820000E-06,+4.000000E-02
-2.819000E-06,+4.000000E-02
-2.818000E-06,+4.000000E-02
-2.817000E-06,+4.000000E-02
-2.816000E-06,+4.000000E-02
-2.815000E-06,+4.000000E-02
-2.814000E-06,+4.000000E-02
-2.813000E-06,+4.000000E-02
-2.812000E-06,+4.000000E-02
-2.811000E-06,+4.000000E-02
-2.810000E-06,+4.000000E-02
-2.809000E-06,+6.000000E-02
-2.808000E-06,+6.000000E-02
-2.807000E-06,+6.000000E-02
-2.806000E-06,+6.000000E-02
-2.805000E-06,+4.000000E-02
-2.804000E-06,+4.000000E-02
-2.803000E-06,+4.000000E-02
-2.802000E-06,+4.000000E-02
-2.801000E-06,+4.000000E-02
-2.800000E-06,+4.000000E-02
-2.799000E-06,+4.000000E-02
